<?xml version="1.0" encoding="UTF-8"?>
<svg width="98px" height="98px" viewBox="0 0 98 98" version="1.1" xmlns="http://www.w3.org/2000/svg" xmlns:xlink="http://www.w3.org/1999/xlink">
    <defs>
        <rect id="path-1" x="0" y="0" width="90" height="90" rx="45"></rect>
        <filter x="-7.8%" y="-5.6%" width="115.6%" height="115.6%" filterUnits="objectBoundingBox" id="filter-2">
            <feOffset dx="0" dy="2" in="SourceAlpha" result="shadowOffsetOuter1"></feOffset>
            <feGaussianBlur stdDeviation="2" in="shadowOffsetOuter1" result="shadowBlurOuter1"></feGaussianBlur>
            <feColorMatrix values="0 0 0 0 0.262745098   0 0 0 0 0.48627451   0 0 0 0 1  0 0 0 0.1 0" type="matrix" in="shadowBlurOuter1"></feColorMatrix>
        </filter>
    </defs>
    <g id="iOS" stroke="none" stroke-width="1" fill="none" fill-rule="evenodd">
        <g id="iPhone-8-Copy-15" transform="translate(-139.000000, -74.000000)">
            <g id="Group-2" transform="translate(32.000000, 76.000000)">
                <g id="UpgradeDarkMode" transform="translate(111.000000, 0.000000)">
                    <g id="Rectangle">
                        <use fill="black" fill-opacity="1" filter="url(#filter-2)" xlink:href="#path-1"></use>
                        <use fill="#000000" fill-rule="evenodd" xlink:href="#path-1"></use>
                    </g>
                    <g id="do-not-disturb" transform="translate(26.000000, 26.000000)" fill="#FFFFFF" fill-rule="nonzero">
                        <path d="M38.7734674,25.8158096 C38.532381,25.5551431 38.1537895,25.4617429 37.8144127,25.5792066 C35.6516644,26.3356453 33.4250973,26.7173188 31.1985302,26.7173188 C20.3812434,26.7173188 11.579567,18.1443462 11.579567,7.60601454 C11.579567,5.43513893 11.9731163,3.26599036 12.7478056,1.16074186 C12.8735858,0.829425965 12.7790844,0.45687981 12.5093713,0.220778615 C12.2396582,-0.0153225808 11.8493575,-0.0671619499 11.5246119,0.0899838095 C4.41590652,3.47496088 0,10.3485368 0,18.0303623 C0,29.0401729 9.19522566,38 20.4982445,38 C28.3851847,38 35.4389351,33.6962434 38.9099688,26.7725837 C39.0684509,26.4562961 39.0144805,26.0780035 38.7734674,25.8158096" id="Path"></path>
                    </g>
                </g>
            </g>
        </g>
    </g>
</svg>