<?xml version="1.0" encoding="UTF-8"?>
<svg width="98px" height="98px" viewBox="0 0 98 98" version="1.1" xmlns="http://www.w3.org/2000/svg" xmlns:xlink="http://www.w3.org/1999/xlink">
    <defs>
        <rect id="path-1" x="0" y="0" width="90" height="90" rx="45"></rect>
        <filter x="-7.8%" y="-5.6%" width="115.6%" height="115.6%" filterUnits="objectBoundingBox" id="filter-2">
            <feOffset dx="0" dy="2" in="SourceAlpha" result="shadowOffsetOuter1"></feOffset>
            <feGaussianBlur stdDeviation="2" in="shadowOffsetOuter1" result="shadowBlurOuter1"></feGaussianBlur>
            <feColorMatrix values="0 0 0 0 0.262745098   0 0 0 0 0.48627451   0 0 0 0 1  0 0 0 0.1 0" type="matrix" in="shadowBlurOuter1"></feColorMatrix>
        </filter>
    </defs>
    <g id="iOS" stroke="none" stroke-width="1" fill="none" fill-rule="evenodd">
        <g id="iPhone-8-Copy-16" transform="translate(-139.000000, -74.000000)">
            <g id="Group-2" transform="translate(32.000000, 76.000000)">
                <g id="UpgradeExportData" transform="translate(111.000000, 0.000000)">
                    <g id="Rectangle">
                        <use fill="black" fill-opacity="1" filter="url(#filter-2)" xlink:href="#path-1"></use>
                        <use fill="#FFFFFF" fill-rule="evenodd" xlink:href="#path-1"></use>
                    </g>
                    <g id="cloud-download" transform="translate(25.000000, 25.000000)" fill="#437CFF" fill-rule="nonzero">
                        <path d="M18.9230561,35.6161099 L16.8840968,33.5771645 C16.4857874,33.1788577 15.9052387,33.0233012 15.3611378,33.1690916 C14.8170369,33.314882 14.3920458,33.7398703 14.2462544,34.2839674 C14.100463,34.8280646 14.2560206,35.4086094 14.65433,35.8069161 L19.3850941,40.537648 C19.6806051,40.8336599 20.081706,41 20.4999775,41 C20.9182489,41 21.3193498,40.8336599 21.6148609,40.537648 L26.3456249,35.8069161 C26.7439344,35.4086094 26.8994919,34.8280646 26.7537005,34.2839674 C26.6079091,33.7398703 26.182918,33.314882 25.6388171,33.1690916 C25.0947163,33.0233012 24.5141676,33.1788577 24.1158581,33.5771645 L22.0768988,35.6161099 L22.0768988,28.3843978 L18.9230561,28.3843978 L18.9230561,35.6161099 Z M41,19.7113894 C41,24.4925824 37.1081131,28.3843978 32.3268875,28.3843978 L22.0768988,28.3843978 L22.0768988,15.7691129 C22.0768988,14.8982092 21.3708871,14.1922022 20.4999775,14.1922022 C19.6290679,14.1922022 18.9230561,14.8982092 18.9230561,15.7691129 L18.9230561,28.3843978 L8.67306739,28.3843978 C3.88558586,28.3783163 0.00608155544,24.4988384 0,19.7113894 C0,15.7691129 2.62872788,12.4229085 6.32030075,11.3963397 C6.56472355,7.31687194 10.3020271,4.09839737 14.5313302,4.8300839 C16.5818998,1.80563912 19.9997525,-0.00400849961 23.6538202,0 C29.7391596,0 34.6922696,4.95150601 34.6922696,11.038381 C34.6922696,11.1566493 34.6906926,11.2749176 34.6859619,11.3963397 C38.4256505,12.4259746 41.0124487,15.8325916 41,19.7113894 L41,19.7113894 Z" id="Shape"></path>
                    </g>
                </g>
            </g>
        </g>
    </g>
</svg>