<?xml version="1.0" encoding="UTF-8"?>
<svg width="98px" height="98px" viewBox="0 0 98 98" version="1.1" xmlns="http://www.w3.org/2000/svg" xmlns:xlink="http://www.w3.org/1999/xlink">
    <defs>
        <rect id="path-1" x="0" y="0" width="90" height="90" rx="45"></rect>
        <filter x="-7.8%" y="-5.6%" width="115.6%" height="115.6%" filterUnits="objectBoundingBox" id="filter-2">
            <feOffset dx="0" dy="2" in="SourceAlpha" result="shadowOffsetOuter1"></feOffset>
            <feGaussianBlur stdDeviation="2" in="shadowOffsetOuter1" result="shadowBlurOuter1"></feGaussianBlur>
            <feColorMatrix values="0 0 0 0 0.262745098   0 0 0 0 0.48627451   0 0 0 0 1  0 0 0 0.1 0" type="matrix" in="shadowBlurOuter1"></feColorMatrix>
        </filter>
        <path d="M39.2307692,20 C33.9718846,20 29.5054615,14.37 27.8577692,12 C29.5054615,9.63 33.9718846,4 39.2307692,4 C43.5579231,4 47.0769231,7.588 47.0769231,12 C47.0769231,16.412 43.5579231,20 39.2307692,20 M11.7692308,20 C7.44207692,20 3.92307692,16.412 3.92307692,12 C3.92307692,7.588 7.44207692,4 11.7692308,4 C17.0281154,4 21.4945385,9.63 23.1422308,12 C21.4945385,14.37 17.0281154,20 11.7692308,20 M39.2307692,0 C32.946,0 27.9636923,5.29 25.5,8.528 C23.0363077,5.29 18.054,0 11.7692308,0 C5.2785,0 0,5.382 0,12 C0,18.618 5.2785,24 11.7692308,24 C18.054,24 23.0363077,18.71 25.5,15.472 C27.9636923,18.71 32.946,24 39.2307692,24 C45.7215,24 51,18.618 51,12 C51,5.382 45.7215,0 39.2307692,0" id="path-3"></path>
        <filter x="-18.4%" y="-30.8%" width="136.9%" height="178.3%" filterUnits="objectBoundingBox" id="filter-4">
            <feMorphology radius="0.9" operator="dilate" in="SourceAlpha" result="shadowSpreadOuter1"></feMorphology>
            <feOffset dx="0" dy="2" in="shadowSpreadOuter1" result="shadowOffsetOuter1"></feOffset>
            <feGaussianBlur stdDeviation="2.5" in="shadowOffsetOuter1" result="shadowBlurOuter1"></feGaussianBlur>
            <feComposite in="shadowBlurOuter1" in2="SourceAlpha" operator="out" result="shadowBlurOuter1"></feComposite>
            <feColorMatrix values="0 0 0 0 0.216407269   0 0 0 0 0.472485363   0 0 0 0 1  0 0 0 0.3 0" type="matrix" in="shadowBlurOuter1"></feColorMatrix>
        </filter>
    </defs>
    <g id="Web" stroke="none" stroke-width="1" fill="none" fill-rule="evenodd">
        <g id="Desktop-HD-Copy-3" transform="translate(-672.000000, -246.000000)">
            <g id="Group-5" transform="translate(399.000000, 172.000000)">
                <g id="Group-2" transform="translate(166.000000, 76.000000)">
                    <g id="UpgradeSkip" transform="translate(111.000000, 0.000000)">
                        <g id="Rectangle">
                            <use fill="black" fill-opacity="1" filter="url(#filter-2)" xlink:href="#path-1"></use>
                            <use fill="#FFFFFF" fill-rule="evenodd" xlink:href="#path-1"></use>
                        </g>
                        <g id="infinity" transform="translate(19.000000, 33.000000)" fill-rule="nonzero">
                            <g id="Shape">
                                <use fill="black" fill-opacity="1" filter="url(#filter-4)" xlink:href="#path-3"></use>
                                <use stroke="#437CFF" stroke-width="1.8" fill="#437CFF" xlink:href="#path-3"></use>
                            </g>
                        </g>
                    </g>
                </g>
            </g>
        </g>
    </g>
</svg>