<?xml version="1.0" encoding="UTF-8"?>
<svg width="98px" height="98px" viewBox="0 0 98 98" version="1.1" xmlns="http://www.w3.org/2000/svg" xmlns:xlink="http://www.w3.org/1999/xlink">
    <defs>
        <rect id="path-1" x="0" y="0" width="90" height="90" rx="45"></rect>
        <filter x="-7.8%" y="-5.6%" width="115.6%" height="115.6%" filterUnits="objectBoundingBox" id="filter-2">
            <feOffset dx="0" dy="2" in="SourceAlpha" result="shadowOffsetOuter1"></feOffset>
            <feGaussianBlur stdDeviation="2" in="shadowOffsetOuter1" result="shadowBlurOuter1"></feGaussianBlur>
            <feColorMatrix values="0 0 0 0 0.262745098   0 0 0 0 0.48627451   0 0 0 0 1  0 0 0 0.1 0" type="matrix" in="shadowBlurOuter1"></feColorMatrix>
        </filter>
    </defs>
    <g id="iOS" stroke="none" stroke-width="1" fill="none" fill-rule="evenodd">
        <g id="iPhone-8-Copy-18" transform="translate(-139.000000, -74.000000)">
            <g id="Group-2" transform="translate(32.000000, 76.000000)">
                <g id="UpgradeNotes" transform="translate(111.000000, 0.000000)">
                    <g id="Rectangle">
                        <use fill="black" fill-opacity="1" filter="url(#filter-2)" xlink:href="#path-1"></use>
                        <use fill="#FFFFFF" fill-rule="evenodd" xlink:href="#path-1"></use>
                    </g>
                    <g id="footnote" transform="translate(30.000000, 25.000000)" fill="#437CFF" fill-rule="nonzero">
                        <path d="M27.5,0 C28.8807119,0 30,1.11928813 30,2.5 L30,37.5 C30,38.8807119 28.8807119,40 27.5,40 L2.5,40 C1.11928813,40 0,38.8807119 0,37.5 L0,2.5 C0,1.11928813 1.11928813,0 2.5,0 L27.5,0 Z M3.33333333,36.6666667 L26.6666667,36.6666667 L26.6666667,33.3333333 L3.33333333,33.3333333 L3.33333333,36.6666667 Z" id="Shape"></path>
                    </g>
                </g>
            </g>
        </g>
    </g>
</svg>