<?xml version="1.0" encoding="UTF-8"?>
<svg width="78px" height="78px" viewBox="0 0 78 78" version="1.1" xmlns="http://www.w3.org/2000/svg" xmlns:xlink="http://www.w3.org/1999/xlink">
    <defs>
        <rect id="path-1" x="0" y="0" width="70" height="70" rx="35"></rect>
        <filter x="-10.0%" y="-7.1%" width="120.0%" height="120.0%" filterUnits="objectBoundingBox" id="filter-2">
            <feOffset dx="0" dy="2" in="SourceAlpha" result="shadowOffsetOuter1"></feOffset>
            <feGaussianBlur stdDeviation="2" in="shadowOffsetOuter1" result="shadowBlurOuter1"></feGaussianBlur>
            <feColorMatrix values="0 0 0 0 0.262745098   0 0 0 0 0.48627451   0 0 0 0 1  0 0 0 0.1 0" type="matrix" in="shadowBlurOuter1"></feColorMatrix>
        </filter>
    </defs>
    <g id="iOS" stroke="none" stroke-width="1" fill="none" fill-rule="evenodd">
        <g id="iPhone-8-Copy-17" transform="translate(-139.000000, -74.000000)">
            <g id="Group-2" transform="translate(32.000000, 76.000000)">
                <g id="UpgradePrivacyLock" transform="translate(111.000000, 0.000000)">
                    <g id="Rectangle">
                        <use fill="black" fill-opacity="1" filter="url(#filter-2)" xlink:href="#path-1"></use>
                        <use fill="#FFFFFF" fill-rule="evenodd" xlink:href="#path-1"></use>
                    </g>
                    <g id="locked" transform="translate(23.333333, 17.111111)" fill="#437CFF" fill-rule="nonzero">
                        <path d="M21.3888889,12.962963 L19.4444444,12.962963 L19.4444444,7.77777778 C19.4444444,3.48222972 15.9622147,0 11.6666667,0 C7.37111861,0 3.88888889,3.48222972 3.88888889,7.77777778 L3.88888889,12.962963 L1.94444444,12.962963 C0.87114957,12.9643912 0.00142820532,13.8341125 0,14.9074074 L0,29.1666667 C0.00142820532,30.2399615 0.87114957,31.1096829 1.94444444,31.1111111 L21.3888889,31.1111111 C22.4621838,31.1096829 23.3319051,30.2399615 23.3333333,29.1666667 L23.3333333,14.9074074 C23.3319051,13.8341125 22.4621838,12.9643912 21.3888889,12.962963 L21.3888889,12.962963 Z M12.8981481,23.0092593 C12.9340056,23.113938 12.9558011,23.2229155 12.962963,23.3333333 C12.962963,24.049258 12.3825913,24.6296296 11.6666667,24.6296296 C10.950742,24.6296296 10.3703704,24.049258 10.3703704,23.3333333 C10.3775323,23.2229155 10.3993278,23.113938 10.4351852,23.0092593 C9.39043283,22.4453213 8.8622345,21.2437895 9.15306438,20.0927241 C9.44389426,18.9416588 10.4794289,18.135222 11.6666667,18.135222 C12.8539044,18.135222 13.8894391,18.9416588 14.1802689,20.0927241 C14.4710988,21.2437895 13.9429005,22.4453213 12.8981481,23.0092593 L12.8981481,23.0092593 Z M16.8518519,12.962963 L6.48148148,12.962963 L6.48148148,7.77777778 C6.48148148,4.91407907 8.80296796,2.59259259 11.6666667,2.59259259 C14.5303654,2.59259259 16.8518519,4.91407907 16.8518519,7.77777778 L16.8518519,12.962963 Z" id="Shape"></path>
                    </g>
                </g>
            </g>
        </g>
    </g>
</svg>