<?xml version="1.0" encoding="UTF-8"?>
<svg width="98px" height="98px" viewBox="0 0 98 98" version="1.1" xmlns="http://www.w3.org/2000/svg" xmlns:xlink="http://www.w3.org/1999/xlink">
    <defs>
        <rect id="path-1" x="0" y="0" width="90" height="90" rx="45"></rect>
        <filter x="-7.8%" y="-5.6%" width="115.6%" height="115.6%" filterUnits="objectBoundingBox" id="filter-2">
            <feOffset dx="0" dy="2" in="SourceAlpha" result="shadowOffsetOuter1"></feOffset>
            <feGaussianBlur stdDeviation="2" in="shadowOffsetOuter1" result="shadowBlurOuter1"></feGaussianBlur>
            <feColorMatrix values="0 0 0 0 0.262745098   0 0 0 0 0.48627451   0 0 0 0 1  0 0 0 0.1 0" type="matrix" in="shadowBlurOuter1"></feColorMatrix>
        </filter>
    </defs>
    <g id="iOS" stroke="none" stroke-width="1" fill="none" fill-rule="evenodd">
        <g id="iPhone-8-Copy-14" transform="translate(-139.000000, -74.000000)">
            <g id="Group-2" transform="translate(32.000000, 76.000000)">
                <g id="UpgradeYearlyCalendar" transform="translate(111.000000, 0.000000)">
                    <g id="Rectangle">
                        <use fill="black" fill-opacity="1" filter="url(#filter-2)" xlink:href="#path-1"></use>
                        <use fill="#FFFFFF" fill-rule="evenodd" xlink:href="#path-1"></use>
                    </g>
                    <g id="calendar" transform="translate(26.000000, 26.000000)" fill="#437CFF" fill-rule="nonzero">
                        <path d="M35.4090909,0 C36.8375455,0 38,1.16245455 38,2.59090909 L38,35.4090909 C38,36.8375455 36.8375455,38 35.4090909,38 L2.59090909,38 C1.16245455,38 0,36.8375455 0,35.4090909 L0,2.59090909 C0,1.16245455 1.16245455,0 2.59090909,0 L35.4090909,0 Z M31.4857143,17.3714286 C32.0853377,17.3714286 32.5714286,16.8853377 32.5714286,16.2857143 C32.5714286,15.6860908 32.0853377,15.2 31.4857143,15.2 C30.8860908,15.2 30.4,15.6860908 30.4,16.2857143 C30.4,16.8853377 30.8860908,17.3714286 31.4857143,17.3714286 Z M31.4857143,23.8857143 C32.0853377,23.8857143 32.5714286,23.3996234 32.5714286,22.8 C32.5714286,22.2003766 32.0853377,21.7142857 31.4857143,21.7142857 C30.8860908,21.7142857 30.4,22.2003766 30.4,22.8 C30.4,23.3996234 30.8860908,23.8857143 31.4857143,23.8857143 Z M31.4857143,31.4857143 C32.0853377,31.4857143 32.5714286,30.9996234 32.5714286,30.4 C32.5714286,29.8003766 32.0853377,29.3142857 31.4857143,29.3142857 C30.8860908,29.3142857 30.4,29.8003766 30.4,30.4 C30.4,30.9996234 30.8860908,31.4857143 31.4857143,31.4857143 Z M23.8857143,16.2857143 C23.8857143,16.8853377 24.3718051,17.3714286 24.9714286,17.3714286 C25.571052,17.3714286 26.0571429,16.8853377 26.0571429,16.2857143 C26.0571429,15.6860908 25.571052,15.2 24.9714286,15.2 C24.3718051,15.2 23.8857143,15.6860908 23.8857143,16.2857143 Z M25.5142857,26.0571429 C27.0133443,26.0571429 28.2285714,24.8419157 28.2285714,23.3428571 C28.2285714,21.8437985 27.0133443,20.6285714 25.5142857,20.6285714 C24.0152271,20.6285714 22.8,21.8437985 22.8,23.3428571 C22.8,24.8419157 24.0152271,26.0571429 25.5142857,26.0571429 Z M24.9714286,31.4857143 C25.571052,31.4857143 26.0571429,30.9996234 26.0571429,30.4 C26.0571429,29.8003766 25.571052,29.3142857 24.9714286,29.3142857 C24.3718051,29.3142857 23.8857143,29.8003766 23.8857143,30.4 C23.8857143,30.9996234 24.3718051,31.4857143 24.9714286,31.4857143 Z M19.5428571,17.3714286 C20.1424806,17.3714286 20.6285714,16.8853377 20.6285714,16.2857143 C20.6285714,15.6860908 20.1424806,15.2 19.5428571,15.2 C18.9432337,15.2 18.4571429,15.6860908 18.4571429,16.2857143 C18.4571429,16.8853377 18.9432337,17.3714286 19.5428571,17.3714286 Z M19.5428571,23.8857143 C20.1424806,23.8857143 20.6285714,23.3996234 20.6285714,22.8 C20.6285714,22.2003766 20.1424806,21.7142857 19.5428571,21.7142857 C18.9432337,21.7142857 18.4571429,22.2003766 18.4571429,22.8 C18.4571429,23.3996234 18.9432337,23.8857143 19.5428571,23.8857143 Z M19.5428571,31.4857143 C20.1424806,31.4857143 20.6285714,30.9996234 20.6285714,30.4 C20.6285714,29.8003766 20.1424806,29.3142857 19.5428571,29.3142857 C18.9432337,29.3142857 18.4571429,29.8003766 18.4571429,30.4 C18.4571429,30.9996234 18.9432337,31.4857143 19.5428571,31.4857143 Z M13.0285714,17.3714286 C13.6281949,17.3714286 14.1142857,16.8853377 14.1142857,16.2857143 C14.1142857,15.6860908 13.6281949,15.2 13.0285714,15.2 C12.428948,15.2 11.9428571,15.6860908 11.9428571,16.2857143 C11.9428571,16.8853377 12.428948,17.3714286 13.0285714,17.3714286 Z M13.0285714,23.8857143 C13.6281949,23.8857143 14.1142857,23.3996234 14.1142857,22.8 C14.1142857,22.2003766 13.6281949,21.7142857 13.0285714,21.7142857 C12.428948,21.7142857 11.9428571,22.2003766 11.9428571,22.8 C11.9428571,23.3996234 12.428948,23.8857143 13.0285714,23.8857143 Z M13.0285714,31.4857143 C13.6281949,31.4857143 14.1142857,30.9996234 14.1142857,30.4 C14.1142857,29.8003766 13.6281949,29.3142857 13.0285714,29.3142857 C12.428948,29.3142857 11.9428571,29.8003766 11.9428571,30.4 C11.9428571,30.9996234 12.428948,31.4857143 13.0285714,31.4857143 Z M6.51428571,17.3714286 C7.11390916,17.3714286 7.6,16.8853377 7.6,16.2857143 C7.6,15.6860908 7.11390916,15.2 6.51428571,15.2 C5.91466227,15.2 5.42857143,15.6860908 5.42857143,16.2857143 C5.42857143,16.8853377 5.91466227,17.3714286 6.51428571,17.3714286 Z M6.51428571,23.8857143 C7.11390916,23.8857143 7.6,23.3996234 7.6,22.8 C7.6,22.2003766 7.11390916,21.7142857 6.51428571,21.7142857 C5.91466227,21.7142857 5.42857143,22.2003766 5.42857143,22.8 C5.42857143,23.3996234 5.91466227,23.8857143 6.51428571,23.8857143 Z M6.51428571,31.4857143 C7.11390916,31.4857143 7.6,30.9996234 7.6,30.4 C7.6,29.8003766 7.11390916,29.3142857 6.51428571,29.3142857 C5.91466227,29.3142857 5.42857143,29.8003766 5.42857143,30.4 C5.42857143,30.9996234 5.91466227,31.4857143 6.51428571,31.4857143 Z M3.25714286,9.77142857 L34.7428571,9.77142857 L34.7428571,3.25714286 L3.25714286,3.25714286 L3.25714286,9.77142857 Z" id="Shape"></path>
                    </g>
                </g>
            </g>
        </g>
    </g>
</svg>