<?xml version="1.0" encoding="UTF-8"?>
<svg width="15px" height="25px" viewBox="0 0 15 25" version="1.1" xmlns="http://www.w3.org/2000/svg" xmlns:xlink="http://www.w3.org/1999/xlink">
    <g id="Web" stroke="none" stroke-width="1" fill="none" fill-rule="evenodd" opacity="0.300000012">
        <g id="Desktop-HD-Copy-3" transform="translate(-995.000000, -285.000000)" fill="#545C77" fill-rule="nonzero">
            <g id="Group-5" transform="translate(399.000000, 172.000000)">
                <g id="ic-keyboard-arrow-right-48px" transform="translate(596.000000, 113.000000)">
                    <polygon id="Path" points="0.17 21.92 9.34 12.75 0.17 3.58 3 0.75 15 12.75 3 24.75"></polygon>
                </g>
            </g>
        </g>
    </g>
</svg>