<?xml version="1.0" encoding="UTF-8"?>
<svg width="13px" height="13px" viewBox="0 0 13 13" version="1.1" xmlns="http://www.w3.org/2000/svg" xmlns:xlink="http://www.w3.org/1999/xlink">
    <g id="Web" stroke="none" stroke-width="1" fill="none" fill-rule="evenodd">
        <g id="Journal" transform="translate(-692.000000, -194.000000)" fill="#5179FD" stroke="#5179FD">
            <g id="Group-23" transform="translate(672.000000, 85.000000)">
                <g id="Group-22" transform="translate(0.000000, 107.000000)">
                    <g id="Group-7" transform="translate(21.000000, 0.000000)">
                        <g id="delete-symbol-1" transform="translate(0.000000, 3.000000)">
                            <path d="M6.48058005,5.49154343 L10.8070108,1.16511269 C11.0675538,0.89535263 11.0638276,0.466555501 10.7986361,0.201363929 C10.5334445,-0.063827643 10.1046474,-0.0675537742 9.83488731,0.192989213 L5.50845657,4.51941995 L1.18202583,0.192989213 C0.912265772,-0.0675537742 0.483468643,-0.063827643 0.218277071,0.201363929 C-0.0469145008,0.466555501 -0.0506406319,0.89535263 0.209902355,1.16511269 L4.53633309,5.49154343 L0.209902355,9.81797417 C0.0311824824,9.99058759 -0.0404934143,10.246202 0.0224233527,10.4865719 C0.0853401198,10.7269418 0.273058237,10.9146599 0.513428095,10.9775766 C0.753797954,11.0404934 1.00941241,10.9688175 1.18202583,10.7900976 L5.50845657,6.46366691 L9.83488731,10.7900976 C10.1046474,11.0506406 10.5334445,11.0469145 10.7986361,10.7817229 C11.0638276,10.5165314 11.0675538,10.0877342 10.8070108,9.81797417 L6.48058005,5.49154343 Z" id="Path"></path>
                        </g>
                    </g>
                </g>
            </g>
        </g>
    </g>
</svg>