<?xml version="1.0" encoding="UTF-8"?>
<svg width="14px" height="14px" viewBox="0 0 14 14" version="1.1" xmlns="http://www.w3.org/2000/svg" xmlns:xlink="http://www.w3.org/1999/xlink">
    <g id="Web" stroke="none" stroke-width="1" fill="none" fill-rule="evenodd">
        <g id="Journal" transform="translate(-692.000000, -247.000000)" fill="#5179FD" fill-rule="nonzero">
            <g id="Group-23" transform="translate(672.000000, 85.000000)">
                <g id="Group-22" transform="translate(0.000000, 107.000000)">
                    <g id="Group-7" transform="translate(20.000000, 53.000000)">
                        <g id="pencil" transform="translate(0.000000, 2.000000)">
                            <path d="M11.5923946,4.14283527 C11.7062531,4.25673111 11.7062531,4.44135629 11.5923946,4.55525213 L3.85525822,12.3048391 C3.73168564,12.4289095 3.58661455,12.5295132 3.42710245,12.6017559 L0.412512524,13.9743399 C0.301797282,14.0239507 0.171967388,14.0003025 0.085854173,13.9148398 C-0.000215621612,13.8288334 -0.0241329457,13.6985619 0.0257723692,13.5875897 L1.39540417,10.5711716 C1.4689023,10.4095882 1.57039971,10.2620048 1.69697983,10.1371714 L9.46561539,2.4266678 C9.57976235,2.31351639 9.76393418,2.31403814 9.87743824,2.42783447 L11.5923946,4.14283527 Z M13.7436732,2.40041779 L12.7193659,3.42591827 C12.6648247,3.48088487 12.5905961,3.51180068 12.5131628,3.51180068 C12.4357295,3.51180068 12.3615009,3.48088487 12.3069597,3.42591827 L10.5984199,1.7167508 C10.4848829,1.60253313 10.4854052,1.41790742 10.5995865,1.30433394 L11.6565596,0.254333452 C11.8245553,0.0869167073 12.0590494,0.00641666967 12.2865436,0 C12.5222305,0.00336690674 12.7464427,0.102317575 12.9077778,0.274166795 L13.761756,1.18008388 C14.0863025,1.52498232 14.0782963,2.06528741 13.7436732,2.40041779 Z" id="Shape"></path>
                        </g>
                    </g>
                </g>
            </g>
        </g>
    </g>
</svg>