<?xml version="1.0" encoding="UTF-8"?>
<svg width="18px" height="18px" viewBox="0 0 18 18" version="1.1" xmlns="http://www.w3.org/2000/svg" xmlns:xlink="http://www.w3.org/1999/xlink">
    <!-- Generator: Sketch 55.2 (78181) - https://sketchapp.com -->
    <title>Icon/16px/Eye</title>
    <desc>Created with Sketch.</desc>
    <g id="Design" stroke="none" stroke-width="1" fill="none" fill-rule="evenodd">
        <g id="sign-in-successful" transform="translate(-1153.000000, -423.000000)" fill="#426EFF">
            <g id="Input" transform="translate(828.000000, 332.000000)">
                <g id="Form" transform="translate(0.000000, 72.000000)">
                    <g id="Icon/16px/Eye-Block" transform="translate(324.000000, 18.000000)">
                        <g id="b-preview" transform="translate(1.250000, 1.250000)">
                            <path d="M15.96875,6.125 C16.40625,6.671875 16.84375,7.109375 17.0625,7.4375 C17.609375,8.203125 17.609375,9.1875 17.0625,9.953125 C15.75,11.921875 12.6875,15.3125 8.75,15.3125 C8.203125,15.3125 7.546875,15.203125 7,15.09375 L15.96875,6.125 Z M15.640625,0.328125 C16.078125,-0.109375 16.734375,-0.109375 17.171875,0.328125 C17.609375,0.765625 17.609375,1.421875 17.171875,1.859375 L1.859375,17.171875 C1.640625,17.390625 1.421875,17.5 1.09375,17.5 C0.765625,17.5 0.546875,17.390625 0.328125,17.171875 C-0.109375,16.734375 -0.109375,16.078125 0.328125,15.640625 L3.0625,12.90625 C1.96875,11.921875 0.984375,10.828125 0.4375,9.953125 C-0.109375,9.296875 -0.109375,8.3125 0.4375,7.546875 C1.75,5.578125 4.8125,2.1875 8.75,2.1875 C10.171875,2.1875 11.484375,2.625 12.6875,3.28125 L15.640625,0.328125 Z M5.796875,10.171875 L10.171875,5.796875 C9.734375,5.578125 9.296875,5.46875 8.75,5.46875 C6.890625,5.46875 5.46875,6.890625 5.46875,8.75 C5.46875,9.296875 5.578125,9.734375 5.796875,10.171875 Z" id="Combined-Shape"></path>
                        </g>
                    </g>
                </g>
            </g>
        </g>
    </g>
</svg>