<?xml version="1.0" encoding="UTF-8"?>
<svg width="22px" height="22px" viewBox="0 0 22 22" version="1.1" xmlns="http://www.w3.org/2000/svg" xmlns:xlink="http://www.w3.org/1999/xlink">
    <g id="iOS" stroke="none" stroke-width="1" fill="none" fill-rule="evenodd">
        <g id="iPad" transform="translate(-37.000000, -783.000000)" fill="#437CFF">
            <g id="Group-13" transform="translate(12.000000, 703.000000)">
                <g id="Group-20" transform="translate(11.000000, 80.000000)">
                    <rect id="Rectangle" x="14" y="0" width="22" height="22" rx="11"></rect>
                </g>
            </g>
        </g>
    </g>
</svg>