<?xml version="1.0" encoding="UTF-8"?>
<svg width="27px" height="26px" viewBox="0 0 27 26" version="1.1" xmlns="http://www.w3.org/2000/svg" xmlns:xlink="http://www.w3.org/1999/xlink">
    <!-- Generator: Sketch 52.6 (67491) - http://www.bohemiancoding.com/sketch -->
    <title>Done Copy</title>
    <desc>Created with Sketch.</desc>
    <g id="Web" stroke="none" stroke-width="1" fill="none" fill-rule="evenodd">
        <g id="Journal" transform="translate(-298.000000, -300.000000)">
            <g id="Group-3" transform="translate(282.000000, 286.000000)">
                <g id="Done-Copy" transform="translate(16.084211, 14.000000)">
                    <ellipse id="Oval-14" fill="#5179FD" cx="13.0684211" cy="13" rx="13.0684211" ry="13"></ellipse>
                    <polyline id="Path-12" stroke="#FFFFFF" stroke-width="2" stroke-linecap="round" stroke-linejoin="round" points="8.45603715 13 12.3154554 16.5645824 18.4722447 9.43541762"></polyline>
                </g>
            </g>
        </g>
    </g>
</svg>