<?xml version="1.0" encoding="UTF-8"?>
<svg width="34px" height="34px" viewBox="0 0 34 34" version="1.1" xmlns="http://www.w3.org/2000/svg" xmlns:xlink="http://www.w3.org/1999/xlink">
    <!-- Generator: Sketch 52.2 (67145) - http://www.bohemiancoding.com/sketch -->
    <title>Done</title>
    <desc>Created with Sketch.</desc>
    <defs>
        <path d="M16.93502,33.8700335 C7.582065,33.8700335 0,26.287968 0,16.93502 C0,7.58207 7.582065,0 16.93502,0 C26.28797,0 33.87003,7.58207 33.87003,16.93502 C33.87003,26.287968 26.28797,33.8700335 16.93502,33.8700335 Z" id="path-1"></path>
    </defs>
    <g id="Page-1" stroke="none" stroke-width="1" fill="none" fill-rule="evenodd">
        <g id="Done">
            <g id="Group-3">
                <mask id="mask-2" fill="white">
                    <use xlink:href="#path-1"></use>
                </mask>
                <g id="Clip-2"></g>
                <polygon id="Fill-1" fill="#437CFF" mask="url(#mask-2)" points="-5 38.870033 38.87003 38.870033 38.87003 -4.999997 -5 -4.999997"></polygon>
            </g>
            <polyline id="Stroke-4" stroke="#FFFFFF" stroke-width="2.5" stroke-linecap="round" stroke-linejoin="round" points="10.82373 16.938237 15.844238 21.599614 23.85327 12.27686"></polyline>
        </g>
    </g>
</svg>