<?xml version="1.0" encoding="UTF-8"?>
<svg width="20px" height="23px" viewBox="0 0 20 23" version="1.1" xmlns="http://www.w3.org/2000/svg" xmlns:xlink="http://www.w3.org/1999/xlink">
    <!-- Generator: Sketch 52.6 (67491) - http://www.bohemiancoding.com/sketch -->
    <title>Page 1</title>
    <desc>Created with Sketch.</desc>
    <g id="Symbols" stroke="none" stroke-width="1" fill="none" fill-rule="evenodd">
        <g id="Web-Sidebar" transform="translate(-30.000000, -287.000000)" fill="#5B85FD">
            <g id="Menu" transform="translate(30.000000, 61.000000)">
                <g id="Item" transform="translate(0.000000, 207.000000)">
                    <g transform="translate(0.000000, 19.000000)" id="Page-1">
                        <g>
                            <path d="M3.73316667,2.22222222 C2.59372222,2.22222222 1.6665,3.14888889 1.6665,4.28833333 L1.6665,18.3683333 C1.6665,19.5077778 2.59372222,20.4344444 3.73316667,20.4344444 L16.1092778,20.4344444 C17.2487222,20.4344444 18.1759444,19.5077778 18.1759444,18.3683333 L18.1759444,4.28833333 C18.1759444,3.14888889 17.2487222,2.22222222 16.1092778,2.22222222 L3.73316667,2.22222222 Z M16.1092778,22.1011111 L3.73316667,22.1011111 C1.67483333,22.1011111 -0.000166666667,20.4266667 -0.000166666667,18.3683333 L-0.000166666667,4.28833333 C-0.000166666667,2.23 1.67483333,0.555555556 3.73316667,0.555555556 L16.1092778,0.555555556 C18.1676111,0.555555556 19.8426111,2.23 19.8426111,4.28833333 L19.8426111,18.3683333 C19.8426111,20.4266667 18.1676111,22.1011111 16.1092778,22.1011111 Z" id="Fill-1"></path>
                            <path d="M6.28688889,18.9762778 L4.14966667,18.9762778 C3.66633333,18.9762778 3.27411111,18.5840556 3.27411111,18.1001667 L3.27411111,13.1857222 C3.27411111,12.7018333 3.66633333,12.3096111 4.14966667,12.3096111 L6.28688889,12.3096111 C6.77077778,12.3096111 7.163,12.7018333 7.163,13.1857222 L7.163,18.1001667 C7.163,18.5840556 6.77077778,18.9762778 6.28688889,18.9762778" id="Fill-4"></path>
                            <path d="M11.0091111,18.9762778 L8.87188889,18.9762778 C8.38855556,18.9762778 7.99633333,18.5840556 7.99633333,18.1001667 L7.99633333,9.76572222 C7.99633333,9.28183333 8.38855556,8.88961111 8.87188889,8.88961111 L11.0091111,8.88961111 C11.493,8.88961111 11.8852222,9.28183333 11.8852222,9.76572222 L11.8852222,18.1001667 C11.8852222,18.5840556 11.493,18.9762778 11.0091111,18.9762778" id="Fill-6"></path>
                            <path d="M15.7313333,18.9762778 L13.5941111,18.9762778 C13.1107778,18.9762778 12.7185556,18.5840556 12.7185556,18.1001667 L12.7185556,5.9185 C12.7185556,5.43516667 13.1107778,5.04294444 13.5941111,5.04294444 L15.7313333,5.04294444 C16.2152222,5.04294444 16.6074444,5.43516667 16.6074444,5.9185 L16.6074444,18.1001667 C16.6074444,18.5840556 16.2152222,18.9762778 15.7313333,18.9762778" id="Fill-8"></path>
                        </g>
                    </g>
                </g>
            </g>
        </g>
    </g>
</svg>