<?xml version="1.0" encoding="UTF-8"?>
<svg width="40px" height="40px" viewBox="0 0 40 40" version="1.1" xmlns="http://www.w3.org/2000/svg" xmlns:xlink="http://www.w3.org/1999/xlink">
    <g id="Web" stroke="none" stroke-width="1" fill="none" fill-rule="evenodd" opacity="0.800000012">
        <g id="Journal" transform="translate(-767.000000, -314.000000)" fill="#F6F8FF">
            <g id="Group-7" transform="translate(282.000000, 47.000000)">
                <g id="Group-8-Copy-2" transform="translate(309.000000, 263.000000)">
                    <rect id="Rectangle" x="176" y="4" width="40" height="40" rx="20"></rect>
                </g>
            </g>
        </g>
    </g>
</svg>