<?xml version="1.0" encoding="UTF-8"?>
<svg width="7px" height="12px" viewBox="0 0 7 12" version="1.1" xmlns="http://www.w3.org/2000/svg" xmlns:xlink="http://www.w3.org/1999/xlink">
    <g id="Symbols" stroke="none" stroke-width="1" fill="none" fill-rule="evenodd">
        <g id="Web-Sidebar" transform="translate(-216.000000, -74.000000)" fill="#545C77" stroke="#545C77">
            <g id="Sidebar">
                <g id="Group" transform="translate(28.000000, 60.000000)">
                    <path d="M193.853576,24.0517347 C194.048808,24.2686635 194.048808,24.6203746 193.853576,24.8373034 C193.658345,25.0542322 193.341811,25.0542322 193.14658,24.8373034 L189.1466,20.3927844 C189.052742,20.2886729 189,20.1473611 189,20 C189,19.8526389 189.052742,19.7113271 189.1466,19.6072156 L193.14658,15.1626966 C193.341811,14.9457678 193.658345,14.9457678 193.853576,15.1626966 C194.048808,15.3796254 194.048808,15.7313365 193.853576,15.9482653 L190.207095,20 L193.853576,24.0517347 Z" id="Path" transform="translate(191.500000, 20.000000) scale(1, -1) rotate(180.000000) translate(-191.500000, -20.000000) "></path>
                </g>
            </g>
        </g>
    </g>
</svg>