<?xml version="1.0" encoding="UTF-8"?>
<svg width="157px" height="127px" viewBox="0 0 157 127" version="1.1" xmlns="http://www.w3.org/2000/svg" xmlns:xlink="http://www.w3.org/1999/xlink">
    <g id="Web" stroke="none" stroke-width="1" fill="none" fill-rule="evenodd">
        <g id="Journal" transform="translate(-772.000000, -82.000000)" fill="#F8F9FA" fill-rule="nonzero">
            <g id="Group-6" transform="translate(290.000000, 69.000000)">
                <g id="badge">
                    <g id="activity-achievements" transform="translate(482.000000, 13.000000)">
                        <path d="M32.1933039,106.099537 C31.1617365,107.050793 30.4508764,108.298798 30.1588428,109.671291 C25.2656693,132.940025 24.0685427,149.189544 24.0096676,150.000711 C23.8788341,152.094047 24.7292519,154.121966 26.2992541,155.495717 C27.5421725,156.476968 29.831759,157.405886 32.1213455,156.804052 C32.99793,156.575094 50.752038,152.015547 71.2209414,139.337783 C72.2545261,138.70324 73.104944,137.754697 73.6544447,136.66878 C87.1229229,109.977191 98.4325504,82.2500172 107.474908,53.7530613 C107.67416,53.1075131 107.455953,52.4058895 106.925724,51.9872116 C106.395495,51.5685336 105.662396,51.518989 105.080655,51.8625175 C89.949759,60.9489028 60.7019268,79.8935907 32.1933039,106.099537 M156.82531,65.0047406 C156.379982,63.1198321 155.122294,61.5291573 153.39093,60.6610691 C152.854513,60.3863188 142.374748,55.2314797 121.990887,51.5681422 C120.835634,51.3568154 119.655614,51.779787 118.897672,52.6768879 C118.13973,53.5739887 117.91974,54.8080697 118.321007,55.9118138 C122.528292,67.3961828 126.152639,79.085792 129.180188,90.9359365 C129.46739,92.0299965 130.298451,92.898629 131.378751,93.2338946 C132.459052,93.5691602 133.635877,93.3236645 134.492029,92.5844383 C147.110922,81.7448845 155.242225,71.0230807 155.687058,70.4343301 C156.853955,68.8833031 157.271025,66.893833 156.82531,65.0047406 M82.4399152,133.73811 C81.7070941,135.230395 82.1974162,137.03478 83.5847085,137.950948 C104.962905,151.688463 123.966473,156.581635 124.875766,156.804052 C127.361603,157.41897 129.454939,156.476968 130.697857,155.495717 C132.267859,154.121966 133.118277,152.094047 132.987444,150.000711 C132.922027,149.117585 129.389522,106.577079 114.186668,63.814156 C113.663334,62.348821 111.569997,62.3553627 111.092455,63.8272393 C103.088415,87.7352331 93.5168099,111.089505 82.4399152,133.73811 M93.4037638,51.3784337 C94.751349,50.5410994 94.1887649,48.4673887 92.5991377,48.382347 C34.6006406,45.3731769 4.26034853,60.3274437 3.60618095,60.6610691 C1.87401194,61.5308649 0.616752185,63.1240289 0.17344192,65.0109388 C-0.269868345,66.8978486 0.146421698,68.8841958 1.31005277,70.4343301 C1.82030348,71.1081225 12.4309015,85.0222631 28.2813818,97.2355685 C29.5243002,98.190653 31.2905527,98.0925278 32.4615126,97.0524017 C55.2657942,76.7601289 78.0112008,61.1059029 93.4037638,51.3784337 M78.5083681,41.4350892 C71.2078547,41.4832069 63.9105015,41.7537215 56.6264628,42.2462567 C55.4787837,42.3247168 54.3745313,41.7932977 53.7198059,40.8474344 C53.0650805,39.901571 52.956549,38.6809155 53.434125,37.6343765 C59.3477999,24.7930704 65.9287257,13.0769323 73.144194,2.7737957 C74.3724813,1.03437292 76.3691701,0 78.4985556,0 C80.6279412,0 82.6246299,1.03437292 83.8529172,2.7737957 C91.0683855,13.083474 97.6493113,24.7930704 103.569528,37.6343765 C104.045026,38.6843741 103.932759,39.907138 103.274013,40.8529958 C102.615266,41.7988535 101.507298,42.3281579 100.357565,42.2462567 C93.0863157,41.7188101 85.7987106,41.4482524 78.5083681,41.4350892" id="Shape"></path>
                    </g>
                </g>
            </g>
        </g>
    </g>
</svg>